<?xml version="1.0" encoding="utf-8"?>
<!-- Generator: Adobe Illustrator 15.0.0, SVG Export Plug-In . SVG Version: 6.00 Build 0)  -->
<!DOCTYPE svg PUBLIC "-//W3C//DTD SVG 1.1//EN" "http://www.w3.org/Graphics/SVG/1.1/DTD/svg11.dtd">
<svg version="1.1" id="Layer_1" xmlns="http://www.w3.org/2000/svg" xmlns:xlink="http://www.w3.org/1999/xlink" x="0px" y="0px"
	 width="502.427px" height="207px" viewBox="38.103 14 502.427 207" enable-background="new 38.103 14 502.427 207"
	 xml:space="preserve">
<g>
	<g>
		<defs>
			<rect id="SVGID_1_" width="575.924" height="221.02"/>
		</defs>
		<clipPath id="SVGID_2_">
			<use xlink:href="#SVGID_1_"  overflow="visible"/>
		</clipPath>
		<path clip-path="url(#SVGID_2_)" fill="#E5894A" d="M540.53,110.195l-67.468-92.861c-0.437-0.603-1.214-0.858-1.921-0.625
			l-109.165,35.47c-0.708,0.23-1.188,0.89-1.188,1.635v28.604h3.437V55.063l106.791-34.698l65.999,90.84l-65.999,90.841
			l-106.79-34.698v-26.111h-3.438v27.361c0,0.744,0.479,1.403,1.188,1.633l109.165,35.471c0.176,0.058,0.354,0.084,0.531,0.084
			c0.538,0,1.061-0.256,1.39-0.707l67.468-92.861C540.969,111.613,540.969,110.797,540.53,110.195"/>
	</g>
	<g>
		<defs>
			<rect id="SVGID_3_" width="575.924" height="221.02"/>
		</defs>
		<clipPath id="SVGID_4_">
			<use xlink:href="#SVGID_3_"  overflow="visible"/>
		</clipPath>
		<path clip-path="url(#SVGID_4_)" fill="#FFFFFF" d="M38.104,89.815c0-0.65,0.52-1.237,1.236-1.237h26.932
			c0.716,0,1.236,0.587,1.236,1.237v7.09c0,0.651-0.52,1.237-1.236,1.237h-18.02v8.066h14.832c0.65,0,1.235,0.586,1.235,1.236v7.091
			c0,0.715-0.585,1.236-1.235,1.236H48.252v8.783h18.019c0.716,0,1.236,0.584,1.236,1.233v7.093c0,0.649-0.52,1.234-1.236,1.234
			H39.339c-0.716,0-1.236-0.586-1.236-1.234L38.104,89.815L38.104,89.815z"/>
	</g>
	<g>
		<defs>
			<rect id="SVGID_5_" width="575.924" height="221.02"/>
		</defs>
		<clipPath id="SVGID_6_">
			<use xlink:href="#SVGID_5_"  overflow="visible"/>
		</clipPath>
		<path clip-path="url(#SVGID_6_)" fill="#FFFFFF" d="M85.989,89.815c0-0.65,0.52-1.237,1.235-1.237h7.742
			c0.651,0,1.236,0.587,1.236,1.237v34.74h15.483c0.716,0,1.236,0.584,1.236,1.233v7.093c0,0.649-0.52,1.234-1.236,1.234H87.224
			c-0.715,0-1.235-0.586-1.235-1.234V89.815z"/>
	</g>
	<g>
		<defs>
			<rect id="SVGID_7_" width="575.924" height="221.02"/>
		</defs>
		<clipPath id="SVGID_8_">
			<use xlink:href="#SVGID_7_"  overflow="visible"/>
		</clipPath>
		<path clip-path="url(#SVGID_8_)" fill="#FFFFFF" d="M128.993,89.815c0-0.65,0.52-1.237,1.236-1.237h26.932
			c0.716,0,1.236,0.587,1.236,1.237v7.09c0,0.651-0.52,1.237-1.236,1.237h-18.019v8.066h14.832c0.65,0,1.235,0.586,1.235,1.236
			v7.091c0,0.715-0.585,1.236-1.235,1.236h-14.832v8.783h18.019c0.716,0,1.236,0.584,1.236,1.233v7.093
			c0,0.649-0.52,1.234-1.236,1.234h-26.932c-0.716,0-1.236-0.586-1.236-1.234V89.815L128.993,89.815z"/>
	</g>
	<g>
		<defs>
			<rect id="SVGID_9_" width="575.924" height="221.02"/>
		</defs>
		<clipPath id="SVGID_10_">
			<use xlink:href="#SVGID_9_"  overflow="visible"/>
		</clipPath>
		<path clip-path="url(#SVGID_10_)" fill="#FFFFFF" d="M181.367,88.969c0.065-0.585,0.65-1.041,1.171-1.041h1.041
			c0.325,0,0.911,0.26,1.105,0.651l15.093,28.104h0.131L215,88.579c0.194-0.391,0.781-0.651,1.106-0.651h1.041
			c0.52,0,1.106,0.456,1.17,1.041l7.351,43.717c0.131,0.846-0.454,1.431-1.235,1.431h-7.677c-0.585,0-1.171-0.521-1.236-1.04
			l-2.927-20.102h-0.131l-10.928,21.075c-0.196,0.392-0.781,0.718-1.106,0.718h-1.172c-0.39,0-0.91-0.326-1.105-0.718
			l-10.995-21.075h-0.129l-2.863,20.102c-0.065,0.521-0.585,1.04-1.236,1.04h-7.676c-0.781,0-1.367-0.585-1.236-1.431
			L181.367,88.969z"/>
	</g>
	<g>
		<defs>
			<rect id="SVGID_11_" width="575.924" height="221.02"/>
		</defs>
		<clipPath id="SVGID_12_">
			<use xlink:href="#SVGID_11_"  overflow="visible"/>
		</clipPath>
		<path clip-path="url(#SVGID_12_)" fill="#FFFFFF" d="M243.761,89.815c0-0.65,0.52-1.237,1.236-1.237h26.932
			c0.716,0,1.236,0.587,1.236,1.237v7.09c0,0.651-0.52,1.237-1.236,1.237H253.91v8.066h14.832c0.65,0,1.235,0.586,1.235,1.236v7.091
			c0,0.715-0.585,1.236-1.235,1.236H253.91v8.783h18.019c0.716,0,1.236,0.584,1.236,1.233v7.093c0,0.649-0.52,1.234-1.236,1.234
			h-26.932c-0.716,0-1.236-0.586-1.236-1.234V89.815L243.761,89.815z"/>
	</g>
	<g>
		<defs>
			<rect id="SVGID_13_" width="575.924" height="221.02"/>
		</defs>
		<clipPath id="SVGID_14_">
			<use xlink:href="#SVGID_13_"  overflow="visible"/>
		</clipPath>
		<path clip-path="url(#SVGID_14_)" fill="#FFFFFF" d="M291.581,89.099c0-0.65,0.585-1.171,1.235-1.171h1.627l25.956,24.98h0.064
			V89.815c0-0.651,0.521-1.237,1.236-1.237h7.807c0.65,0,1.235,0.586,1.235,1.237v43.781c0,0.65-0.585,1.17-1.235,1.17h-1.041
			c-0.196,0-0.716-0.193-0.846-0.324l-25.697-25.826h-0.065v24.265c0,0.65-0.52,1.236-1.233,1.236h-7.742
			c-0.651,0-1.235-0.586-1.235-1.236L291.581,89.099z"/>
	</g>
	<g>
		<defs>
			<rect id="SVGID_15_" width="575.924" height="221.02"/>
		</defs>
		<clipPath id="SVGID_16_">
			<use xlink:href="#SVGID_15_"  overflow="visible"/>
		</clipPath>
		<path clip-path="url(#SVGID_16_)" fill="#FFFFFF" d="M357.553,98.142h-9.303c-0.716,0-1.236-0.586-1.236-1.237v-7.09
			c0-0.65,0.521-1.237,1.236-1.237h28.885c0.714,0,1.234,0.587,1.234,1.237v7.09c0,0.651-0.521,1.237-1.234,1.237h-9.305v34.739
			c0,0.65-0.585,1.235-1.234,1.235h-7.808c-0.65,0-1.235-0.585-1.235-1.235V98.142z"/>
	</g>
	<g>
		<defs>
			<rect id="SVGID_17_" width="575.924" height="221.02"/>
		</defs>
		<clipPath id="SVGID_18_">
			<use xlink:href="#SVGID_17_"  overflow="visible"/>
		</clipPath>
		<path clip-path="url(#SVGID_18_)" fill="#E5894A" d="M430.293,94.798c2.945,0.306,5.533,0.416,8.629,0.416
			c0.541,0,1.097-0.004,1.673-0.009c7.5-0.075,14.003-2.567,17.673-3.859c4.748-1.671,8.558-3.741,11.46-6.089
			c2.907-2.348,4.996-4.734,6.27-7.162c1.271-2.428,1.91-4.318,1.91-5.673c0-0.555-0.12-1.054-0.358-1.492
			c-0.235-0.435-0.834-0.734-1.79-0.894c-2.549,0.877-5.95,1.651-10.205,2.329c-4.259,0.674-8.937,1.013-14.028,1.013
			c-1.989,0-4.378-0.119-7.162-0.359c-2.786-0.239-5.573-0.538-8.356-0.893c-2.787-0.359-5.372-0.718-7.761-1.076
			c-2.388-0.359-4.219-0.695-5.49-1.014c-0.239,0-0.559,0.06-0.957,0.18c-0.397,0.119-0.678,0.415-0.834,0.893
			c-0.638,3.821-1.595,9.215-2.866,16.178c-1.272,6.965-3.342,15.539-6.209,25.724c0,0.479,0.16,0.856,0.479,1.136
			c0.319,0.28,0.674,0.418,1.076,0.418c0.714,0,1.567-0.277,2.563-0.836c0.997-0.555,2.229-1.192,3.7-1.91
			c1.473-0.717,3.263-1.353,5.374-1.91c2.107-0.555,4.596-0.834,7.462-0.834c4.614,0,7.88,1.313,9.789,3.938
			c1.91,2.629,2.863,5.934,2.863,9.909c0,2.548-0.199,5.552-0.598,9.015s-1.152,6.765-2.267,9.91
			c-1.115,3.143-2.707,5.81-4.776,7.996c-2.068,2.19-4.472,3.203-7.893,3.203c-0.398,0-1.243-0.038-2.157-0.158
			c-0.645-0.084-1.345-0.211-2.021-0.361h-0.001c-3.05-0.637-5.158-1.094-7.197-1.902c-0.574-0.229-1.32-0.566-1.854-0.805v-0.004
			c-1.905-0.808-3.422-1.838-4.563-2.834c-1.262-1.096-2.157-2.215-2.817-3.522c-0.005-0.011-0.011-0.021-0.018-0.033
			c-0.035-0.071-0.07-0.143-0.104-0.216c-0.448-1.005,1.498-1.459,1.502-1.46l15.465-3.248c0,0.001,0,0.002,0,0.002l1.521-0.293
			c2.224-0.44,2.134-2.437,2.103-2.776c-0.406-2.676-1.547-4.882-3.449-6.603c-2.428-2.187-4.986-3.281-8.807-3.281
			c-3.742,0-6.847,1.191-9.313,3.581c-2.468,2.389-3.942,5.436-3.902,9.174c0.021,2.09,0.309,3.658,0.988,5.438
			c0.876,2.292,2.199,4.232,4.349,6.101c2.149,1.873,5.232,3.425,9.252,4.656c4.017,1.231,9.451,1.851,16.294,1.851
			c7.96,0,14.565-0.797,19.817-2.389s9.432-3.681,12.536-6.266c3.104-2.588,5.271-5.494,6.505-8.717
			c1.233-3.222,1.852-6.506,1.852-9.849c0-3.581-0.734-6.884-2.206-9.909c-1.477-3.022-3.604-5.611-6.389-7.761
			c-2.787-2.148-6.169-3.819-10.147-5.013c-3.98-1.193-8.479-1.79-13.49-1.79c-4.617,0-9.115,0.358-13.49,1.073
			c-4.378,0.717-8.713,2.029-13.012,3.939l3.861-16.534C423.867,93.849,427.054,94.461,430.293,94.798 M421.824,87.968
			c1.034-5.66,1.842-10.187,2.452-13.735c0.98,0.183,2.11,0.37,3.404,0.564c2.415,0.363,5.054,0.728,7.843,1.087
			c2.843,0.364,5.708,0.67,8.514,0.911c2.878,0.247,5.396,0.373,7.486,0.373c5.262,0,10.181-0.357,14.624-1.061
			c2.788-0.444,5.205-0.923,7.299-1.449c-0.202,0.47-0.465,1.026-0.808,1.678c-1.022,1.952-2.804,3.962-5.295,5.975
			c-2.559,2.069-6.046,3.91-10.365,5.471l-0.116,0.042c-3.272,1.155-9.355,3.471-16.31,3.591c-0.563,0.01-1.104,0.01-1.632,0.01
			c-3.101,0-5.563-0.119-8.238-0.397c-2.709-0.281-5.591-0.785-9.068-1.586l-0.063-0.015
			C421.646,88.933,421.736,88.446,421.824,87.968 M407.865,137.415c0.005-0.063,0.013-0.124,0.019-0.187
			c0.009-0.098,0.018-0.192,0.028-0.295c0.254-1.931,1.135-3.595,2.671-5.082c1.749-1.691,3.934-2.515,6.68-2.515
			c2.874,0,4.545,0.755,6.266,2.304c0.587,0.531,1.047,1.131,1.411,1.797c0.145,0.36,0.504,1.459-0.441,1.646l-15.12,3.02
			c0,0-1.547,0.271-1.477,1.232C407.9,139.336,407.776,138.568,407.865,137.415 M443.405,108.446c4.619,0,8.791,0.549,12.401,1.631
			c3.515,1.053,6.517,2.528,8.92,4.382c2.339,1.805,4.07,3.904,5.297,6.417c1.229,2.524,1.824,5.224,1.824,8.253
			c0,2.86-0.539,5.719-1.602,8.494c-0.991,2.596-2.806,5.005-5.389,7.158c-2.701,2.248-6.474,4.115-11.211,5.551
			c-3.66,1.109-8.123,1.809-13.315,2.087c2.411-2.555,4.285-5.687,5.572-9.312c1.202-3.396,2.028-7.008,2.458-10.739
			c0.413-3.593,0.623-6.771,0.623-9.448c0-4.777-1.207-8.861-3.59-12.14c-0.644-0.884-1.386-1.663-2.224-2.335
			C443.25,108.446,443.327,108.446,443.405,108.446"/>
	</g>
</g>
</svg>
