<?xml version="1.0" encoding="utf-8"?>
<!-- Generator: Adobe Illustrator 21.1.0, SVG Export Plug-In . SVG Version: 6.00 Build 0)  -->
<svg version="1.1" id="Layer_1" xmlns="http://www.w3.org/2000/svg" xmlns:xlink="http://www.w3.org/1999/xlink" x="0px" y="0px"
	 viewBox="0 0 50 50" style="enable-background:new 0 0 50 50;" xml:space="preserve">
<style type="text/css">
	.st0{fill:#24CE5F;}
</style>
<g>
	<g>
		<path class="st0" d="M37.2,5.1c2.1-2.1,5.6-2.1,7.7,0l0,0c2.1,2.1,2.1,5.6,0,7.7l0,0L12.8,44.9c-2.1,2.1-5.6,2.1-7.7,0l0,0
			c-2.1-2.1-2.1-5.6,0-7.7l0,0L37.2,5.1L37.2,5.1z"/>
	</g>
	<g>
		<path class="st0" d="M5.1,12.8C3,10.7,3,7.2,5.1,5.1l0,0c2.1-2.1,5.6-2.1,7.7,0l0,0l32.1,32.1c2.1,2.1,2.1,5.6,0,7.7l0,0
			c-2.1,2.1-5.6,2.1-7.7,0l0,0L5.1,12.8L5.1,12.8z"/>
	</g>
</g>
</svg>
